lab4/code/template/test.vcd
$date
	Mon Nov  4 22:09:22 2019
$end
$version
	Icarus Verilog
$end
$timescale
	1ps
$end
$scope module TB_RISCV $end
$var wire 1 ! RSTn $end
$var wire 1 " RF_WE $end
$var wire 32 # RF_WD [31:0] $end
$var wire 5 $ RF_WA [4:0] $end
$var wire 32 % RF_RD2 [31:0] $end
$var wire 32 & RF_RD1 [31:0] $end
$var wire 5 ' RF_RA2 [4:0] $end
$var wire 5 ( RF_RA1 [4:0] $end
$var wire 32 ) OUTPUT_PORT [31:0] $end
$var wire 32 * NUM_INST [31:0] $end
$var wire 32 + I_MEM_DOUT [31:0] $end
$var wire 1 , I_MEM_CSN $end
$var wire 12 - I_MEM_ADDR [11:0] $end
$var wire 1 . HALT $end
$var wire 1 / D_MEM_WEN $end
$var wire 32 0 D_MEM_DOUT [31:0] $end
$var wire 32 1 D_MEM_DI [31:0] $end
$var wire 1 2 D_MEM_CSN $end
$var wire 4 3 D_MEM_BE [3:0] $end
$var wire 12 4 D_MEM_ADDR [11:0] $end
$var wire 1 5 CLK $end
$var reg 32 6 cycle [31:0] $end
$var reg 32 7 i [31:0] $end
$scope module d_mem1 $end
$var wire 32 8 DOUT [31:0] $end
$var wire 1 / WEN $end
$var wire 32 9 DI [31:0] $end
$var wire 1 2 CSN $end
$var wire 1 5 CLK $end
$var wire 4 : BE [3:0] $end
$var wire 12 ; ADDR [11:0] $end
$var reg 32 < outline [31:0] $end
$var reg 32 = temp [31:0] $end
$upscope $end
$scope module i_mem1 $end
$var wire 10 > ADDR [9:0] $end
$var wire 4 ? BE [3:0] $end
$var wire 32 @ DI [31:0] $end
$var wire 32 A DOUT [31:0] $end
$var wire 1 B WEN $end
$var wire 1 , CSN $end
$var wire 1 5 CLK $end
$var reg 32 C outline [31:0] $end
$var reg 32 D temp [31:0] $end
$upscope $end
$scope module reg_file1 $end
$var wire 32 E RD1 [31:0] $end
$var wire 32 F RD2 [31:0] $end
$var wire 1 " WE $end
$var wire 32 G WD [31:0] $end
$var wire 5 H WA [4:0] $end
$var wire 1 ! RSTn $end
$var wire 5 I RA2 [4:0] $end
$var wire 5 J RA1 [4:0] $end
$var wire 1 5 CLK $end
$upscope $end
$scope module riscv_clkrst1 $end
$var wire 1 5 CLK $end
$var wire 1 ! RSTn $end
$var reg 1 K clock_q $end
$var reg 1 ! reset_n_q $end
$upscope $end
$scope module riscv_top1 $end
$var wire 1 5 CLK $end
$var wire 32 L D_MEM_DI [31:0] $end
$var wire 32 M D_MEM_DOUT [31:0] $end
$var wire 32 N I_MEM_DI [31:0] $end
$var wire 32 O RF_RD1 [31:0] $end
$var wire 32 P RF_RD2 [31:0] $end
$var wire 1 ! RSTn $end
$var wire 32 Q _NUM_INST [31:0] $end
$var wire 1 R ZERO $end
$var wire 12 S TEMP [11:0] $end
$var wire 1 " RF_WE $end
$var wire 32 T RF_WD [31:0] $end
$var wire 5 U RF_WA1 [4:0] $end
$var wire 5 V RF_RA2 [4:0] $end
$var wire 5 W RF_RA1 [4:0] $end
$var wire 1 X REWR_MUX $end
$var wire 1 Y PC_WRITE_COND $end
$var wire 1 Z PC_WR $end
$var wire 32 [ PC_OUT [31:0] $end
$var wire 32 \ PC_IN [31:0] $end
$var wire 32 ] OUTPUT_PORT [31:0] $end
$var wire 7 ^ OPCODE [6:0] $end
$var wire 4 _ OP [3:0] $end
$var wire 2 ` MUX4 [1:0] $end
$var wire 32 a MUX2_OUT [31:0] $end
$var wire 2 b MUX2 [1:0] $end
$var wire 32 c MUX1_OUT [31:0] $end
$var wire 1 d MUX1 $end
$var wire 32 e JALR_D [31:0] $end
$var wire 32 f JALROUT_D [31:0] $end
$var wire 1 , I_MEM_CSN $end
$var wire 1 g IR_WR $end
$var wire 32 h IMMEDIATE [31:0] $end
$var wire 1 . HALT $end
$var wire 7 i FUNCT7 [6:0] $end
$var wire 3 j FUNCT3 [2:0] $end
$var wire 1 / D_MEM_WEN $end
$var wire 1 2 D_MEM_CSN $end
$var wire 4 k D_MEM_BE [3:0] $end
$var wire 12 l D_MEM_ADDR [11:0] $end
$var wire 32 m B_OUT [31:0] $end
$var wire 32 n A_OUT [31:0] $end
$var wire 32 o ALU_D [31:0] $end
$var wire 11 p ALU_CONTROL [10:0] $end
$var wire 32 q ALUOUT_D [31:0] $end
$var reg 12 r I_MEM_ADDR [11:0] $end
$var reg 32 s NUM_INST [31:0] $end
$scope module A $end
$var wire 1 5 CLK $end
$var wire 32 t IN_VAL [31:0] $end
$var wire 32 u OUT_VAL [31:0] $end
$var reg 32 v _VAL [31:0] $end
$upscope $end
$scope module B $end
$var wire 1 5 CLK $end
$var wire 32 w IN_VAL [31:0] $end
$var wire 32 x OUT_VAL [31:0] $end
$var reg 32 y _VAL [31:0] $end
$upscope $end
$scope module MREWR_MUX $end
$var wire 32 z INPUT2 [31:0] $end
$var wire 32 { OUTPUT [31:0] $end
$var wire 1 X SIGNAL $end
$var wire 32 | INPUT1 [31:0] $end
$var reg 32 } _OUTPUT [31:0] $end
$upscope $end
$scope module alu $end
$var wire 32 ~ Out [31:0] $end
$var wire 1 R Zero $end
$var wire 4 !" OP [3:0] $end
$var wire 32 "" B [31:0] $end
$var wire 32 #" A [31:0] $end
$var reg 32 $" Kout [31:0] $end
$var reg 1 R _ZERO $end
$upscope $end
$scope module alucontrol $end
$var wire 4 %" CONTROLOUT [3:0] $end
$var wire 7 &" FUNCT7 [6:0] $end
$var wire 3 '" FUNCT3 [2:0] $end
$var wire 11 (" ALU_CONTROL [10:0] $end
$var reg 7 )" OP [6:0] $end
$var reg 4 *" STATE [3:0] $end
$var reg 4 +" _CONTROLOUT [3:0] $end
$upscope $end
$scope module aluout $end
$var wire 1 5 CLK $end
$var wire 32 ," IN_VAL [31:0] $end
$var wire 32 -" OUT_VAL [31:0] $end
$var reg 32 ." _VAL [31:0] $end
$upscope $end
$scope module control $end
$var wire 1 5 CLK $end
$var wire 4 /" CUR_STATE [3:0] $end
$var wire 32 0" NUM_INST [31:0] $end
$var wire 4 1" NXT_STATE [3:0] $end
$var wire 1 ! RSTn $end
$var wire 11 2" _ALU_CONTROL [10:0] $end
$var wire 4 3" _D_MEM_BE [3:0] $end
$var wire 1 2 _D_MEM_CSN $end
$var wire 1 / _D_MEM_WEN $end
$var wire 1 g _IR_WR $end
$var wire 1 , _I_MEM_CSN $end
$var wire 1 d _MUX1 $end
$var wire 2 4" _MUX2 [1:0] $end
$var wire 2 5" _MUX4 [1:0] $end
$var wire 1 Z _PC_WR $end
$var wire 1 Y _PC_WRITE_COND $end
$var wire 1 X _REWR_MUX $end
$var wire 1 " _RF_WE $end
$var wire 7 6" OPCODE [6:0] $end
$var reg 11 7" ALU_CONTROL [10:0] $end
$var reg 4 8" CUR_STATE_REG [3:0] $end
$var reg 4 9" D_MEM_BE [3:0] $end
$var reg 1 :" D_MEM_WEN $end
$var reg 1 ;" IR_WR $end
$var reg 1 <" MUX1 $end
$var reg 2 =" MUX2 [1:0] $end
$var reg 2 >" MUX4 [1:0] $end
$var reg 4 ?" NXT_STATE_REG [3:0] $end
$var reg 1 Z PC_WR $end
$var reg 1 Y PC_WRITE_COND $end
$var reg 1 @" REWR_MUX $end
$var reg 1 A" RF_WE $end
$var reg 32 B" _NUMINST [31:0] $end
$upscope $end
$scope module d_translate $end
$var wire 32 C" E_ADDR [31:0] $end
$var wire 12 D" T_ADDR [11:0] $end
$var reg 12 E" temp_T_ADDR [11:0] $end
$upscope $end
$scope module halt $end
$var wire 32 F" _Instruction [31:0] $end
$var wire 32 G" _RF_RD1 [31:0] $end
$var wire 1 . _halt $end
$var reg 1 H" reg_halt $end
$upscope $end
$scope module i_translate $end
$var wire 12 I" T_ADDR [11:0] $end
$var wire 32 J" E_ADDR [31:0] $end
$var reg 12 K" temp_T_ADDR [11:0] $end
$upscope $end
$scope module instreg $end
$var wire 1 5 CLK $end
$var wire 3 L" FUNCT3 [2:0] $end
$var wire 7 M" FUNCT7 [6:0] $end
$var wire 32 N" IMMEDIATE [31:0] $end
$var wire 32 O" INSTRUCTION [31:0] $end
$var wire 1 g IRWRITE $end
$var wire 7 P" OPCODE [6:0] $end
$var wire 5 Q" RD [4:0] $end
$var wire 5 R" RS2 [4:0] $end
$var wire 5 S" RS1 [4:0] $end
$var reg 32 T" TEMP_INST [31:0] $end
$var reg 3 U" _FUNCT3 [2:0] $end
$var reg 7 V" _FUNCT7 [6:0] $end
$var reg 32 W" _IMMEDIATE [31:0] $end
$var reg 7 X" _OPCODE [6:0] $end
$var reg 5 Y" _RD [4:0] $end
$var reg 5 Z" _RS1 [4:0] $end
$var reg 5 [" _RS2 [4:0] $end
$upscope $end
$scope module isjalr $end
$var wire 32 \" A [31:0] $end
$var wire 32 ]" IMM [31:0] $end
$var wire 32 ^" JALR_OUT [31:0] $end
$var reg 1 _" _JALR_OUT $end
$upscope $end
$scope module jalrreg $end
$var wire 1 5 CLK $end
$var wire 32 `" IN_VAL [31:0] $end
$var wire 32 a" OUT_VAL [31:0] $end
$var reg 32 b" _VAL [31:0] $end
$upscope $end
$scope module mux1 $end
$var wire 32 c" INPUT2 [31:0] $end
$var wire 32 d" OUTPUT [31:0] $end
$var wire 1 d SIGNAL $end
$var wire 32 e" INPUT1 [31:0] $end
$var reg 32 f" _OUTPUT [31:0] $end
$upscope $end
$scope module mux2 $end
$var wire 32 g" INPUT1 [31:0] $end
$var wire 32 h" INPUT2 [31:0] $end
$var wire 32 i" INPUT3 [31:0] $end
$var wire 32 j" INPUT4 [31:0] $end
$var wire 32 k" OUTPUT [31:0] $end
$var wire 2 l" SIGNAL [1:0] $end
$var reg 32 m" _OUTPUT [31:0] $end
$upscope $end
$scope module mux4 $end
$var wire 32 n" INPUT1 [31:0] $end
$var wire 32 o" INPUT2 [31:0] $end
$var wire 32 p" INPUT3 [31:0] $end
$var wire 32 q" INPUT4 [31:0] $end
$var wire 32 r" OUTPUT [31:0] $end
$var wire 2 s" SIGNAL [1:0] $end
$var reg 32 t" _OUTPUT [31:0] $end
$upscope $end
$scope module outputport $end
$var wire 12 u" DMEMADDR [11:0] $end
$var wire 7 v" OPCODE [6:0] $end
$var wire 32 w" OUTPUT [31:0] $end
$var wire 32 x" REGWRVAL [31:0] $end
$var wire 1 R ZERO $end
$var reg 32 y" _OUTPUT [31:0] $end
$upscope $end
$scope module pc $end
$var wire 1 5 CLK $end
$var wire 32 z" IN_VAL [31:0] $end
$var wire 32 {" OUT_VAL [31:0] $end
$var wire 1 ! RSTn $end
$var wire 1 |" WREN $end
$var reg 32 }" _VAL [31:0] $end
$upscope $end
$upscope $end
$upscope $end
$enddefinitions $end
#0
$dumpvars
b0 }"
0|"
b0 {"
b100 z"
b0 y"
b0 x"
b0 w"
b0 v"
b0 u"
b100 t"
b0 s"
b100 r"
b0 q"
b0 p"
b0 o"
b100 n"
b100 m"
b0 l"
b100 k"
b0 j"
b0 i"
b0 h"
b100 g"
b0 f"
b0 e"
b0 d"
b0 c"
b0 b"
b0 a"
b0 `"
0_"
b0 ^"
b0 ]"
b0 \"
b0 ["
b0 Z"
b0 Y"
b0 X"
b0 W"
b0 V"
b0 U"
b0 T"
b0 S"
b0 R"
b0 Q"
b0 P"
bx O"
b0 N"
b0 M"
b0 L"
b0 K"
b0 J"
b0 I"
xH"
bx G"
bx F"
b0 E"
b0 D"
b0 C"
b0 B"
0A"
0@"
b1 ?"
b0 >"
b0 ="
0<"
1;"
1:"
b0 9"
b1 8"
b1 7"
b0 6"
b0 5"
b0 4"
b0 3"
b1 2"
b1 1"
b0 0"
b1 /"
b0 ."
b0 -"
b100 ,"
b0 +"
b1 *"
b0 )"
b1 ("
b0 '"
b0 &"
b0 %"
b100 $"
b0 #"
b100 ""
b0 !"
b100 ~
b0 }
b0 |
b0 {
bx z
b0 y
b0 x
bx w
b0 v
b0 u
bx t
bx s
b0 r
b0 q
b1 p
b100 o
b0 n
b0 m
b0 l
b0 k
b0 j
b0 i
b0 h
1g
b0 f
b0 e
0d
b0 c
b0 b
b100 a
b0 `
b0 _
b0 ^
b0 ]
b100 \
b0 [
0Z
0Y
0X
b0 W
b0 V
b0 U
b0 T
b0 S
0R
b0 Q
bx P
bx O
bx N
b0 M
bx L
0K
b0 J
b0 I
b0 H
b0 G
bx F
bx E
bx D
bx C
1B
bx A
bz @
b0 ?
b0 >
bx =
bx <
b0 ;
b0 :
b0 9
bx 8
bx 7
b0 6
05
b0 4
b0 3
12
b0 1
bx 0
1/
x.
b0 -
1,
bx +
bx *
b0 )
b0 (
b0 '
bx &
bx %
b0 $
b0 #
0"
0!
$end
#5000
bx )"
bx0001 p
bx0001 ("
bx0001 2"
bx0001 7"
bx ^
bx 6"
bx P"
bx v"
bx X"
bx i
bx &"
bx M"
bx V"
bx j
bx '"
bx L"
bx U"
bx $
bx H
bx U
bx Q"
bx Y"
bx '
bx I
bx V
bx R"
bx ["
bx (
bx J
bx W
bx S"
bx Z"
0.
0H"
bx T"
b0 *
b0 s
bx &
bx E
bx O
bx t
bx G"
bx %
bx F
bx P
bx w
b100 )
b100 ]
b100 w"
b100 y"
b100 #
b100 G
b100 T
b100 {
b100 x"
b100 }
b100 4
b100 ;
b100 l
b100 D"
b100 u"
b100 E"
b100 q
b100 |
b100 -"
b100 C"
b100 p"
b100 ."
bx n
bx u
bx \"
bx c"
bx v
bx 1
bx 9
bx M
bx m
bx x
bx y
bx h"
15
1K
#10000
05
0K
#15000
15
1K
#20000
05
0K
#25000
15
1K
#30000
05
0K
#35000
15
1K
#40000
05
0K
#45000
15
1K
#50000
05
0K
#55000
15
1K
#60000
05
0K
#65000
15
1K
#70000
05
0K
#75000
15
1K
#80000
05
0K
#85000
15
1K
#90000
05
0K
#95000
15
1K
#100000
05
0K
#105000
b1 6
b10 1"
b10 ?"
b11110111000000010000000100010011 C
b101000 7
0,
02
15
1K
1!
#106000
b11110111000000010000000100010011 +
b11110111000000010000000100010011 A
b11110111000000010000000100010011 N
b11110111000000010000000100010011 F"
b11110111000000010000000100010011 O"
#110000
05
0K
#115000
b10011 )"
b11111111111111111111111101110000 o
b11111111111111111111111101110000 ~
b11111111111111111111111101110000 ,"
b11111111111111111111111101110000 n"
b11111111111111111111111101110000 $"
b10 *"
1|"
b11111111111111111111111101110000 a
b11111111111111111111111101110000 ""
b11111111111111111111111101110000 k"
b11111111111111111111111101110000 m"
b11111111111111111111111101110000 h
b11111111111111111111111101110000 N"
b11111111111111111111111101110000 ]"
b11111111111111111111111101110000 i"
b11111111111111111111111101110000 W"
b10011 ^
b10011 6"
b10011 P"
b10011 v"
b10011 X"
b1111011 i
b1111011 &"
b1111011 M"
b1111011 V"
b0 j
b0 '"
b0 L"
b0 U"
b10 $
b10 H
b10 U
b10 Q"
b10 Y"
b0 %
b0 F
b0 P
b0 w
b10000 '
b10000 I
b10000 V
b10000 R"
b10000 ["
b111100000000 &
b111100000000 E
b111100000000 O
b111100000000 t
b111100000000 G"
b10 (
b10 J
b10 W
b10 S"
b10 Z"
b101 1"
b101 ?"
0g
0;"
b100110010 p
b100110010 ("
b100110010 2"
b100110010 7"
1Z
b10 `
b10 5"
b10 s"
b10 >"
b10 b
b10 4"
b10 l"
b10 ="
b10 6
b11110111000000010000000100010011 T"
b101000 7
b10 /"
b10 8"
15
1K
#120000
05
0K
#125000
b101 *"
0|"
b1011 1"
b1011 ?"
b100110101 p
b100110101 ("
b100110101 2"
b100110101 7"
0Z
1d
1<"
b11 6
b1 >
b11111111111111111111111101110000 )
b11111111111111111111111101110000 ]
b11111111111111111111111101110000 w"
b11111111111111111111111101110000 y"
b111001110000 o
b111001110000 ~
b111001110000 ,"
b111001110000 n"
b111001110000 $"
b100 -
b100 r
b100 S
b100 I"
b100 K"
b11111111111111111111111101110000 #
b11111111111111111111111101110000 G
b11111111111111111111111101110000 T
b11111111111111111111111101110000 {
b11111111111111111111111101110000 x"
b11111111111111111111111101110000 }
b111101110000 4
b111101110000 ;
b111101110000 l
b111101110000 D"
b111101110000 u"
b111101110000 E"
b11111111111111111111111101110000 \
b11111111111111111111111101110000 r"
b11111111111111111111111101110000 z"
b11111111111111111111111101110000 t"
b111100000000 c
b111100000000 #"
b111100000000 d"
b111100000000 f"
b101 /"
b101 8"
b100 [
b100 J"
b100 e"
b100 {"
b100 }"
b11111111111111111111111101110000 q
b11111111111111111111111101110000 |
b11111111111111111111111101110000 -"
b11111111111111111111111101110000 C"
b11111111111111111111111101110000 p"
b11111111111111111111111101110000 ."
b111100000000 n
b111100000000 u
b111100000000 \"
b111100000000 c"
b111100000000 v
b0 1
b0 9
b0 M
b0 m
b0 x
b0 y
b0 h"
b101000 7
15
1K
#130000
05
0K
#135000
b1 1"
b1 ?"
1"
1A"
b100 6
b111001110000 )
b111001110000 ]
b111001110000 w"
b111001110000 y"
b111001110000 #
b111001110000 G
b111001110000 T
b111001110000 {
b111001110000 x"
b111001110000 }
b111001110000 4
b111001110000 ;
b111001110000 l
b111001110000 D"
b111001110000 u"
b111001110000 E"
b111001110000 \
b111001110000 r"
b111001110000 z"
b111001110000 t"
b101000 7
b1000000100010010011000100011 C
b111001110000 q
b111001110000 |
b111001110000 -"
b111001110000 C"
b111001110000 p"
b111001110000 ."
b1011 /"
b1011 8"
15
1K
#136000
b1000000100010010011000100011 +
b1000000100010010011000100011 A
b1000000100010010011000100011 N
b1000000100010010011000100011 F"
b1000000100010010011000100011 O"
#140000
b1 Q
b1 0"
b1 B"
05
0K
#145000
b1000 o
b1000 ~
b1000 ,"
b1000 n"
b1000 $"
b1 *"
b100 a
b100 ""
b100 k"
b100 m"
b100 c
b100 #"
b100 d"
b100 f"
b10 1"
b10 ?"
1g
1;"
0"
0A"
b100110001 p
b100110001 ("
b100110001 2"
b100110001 7"
b0 b
b0 4"
b0 l"
b0 ="
0d
0<"
b1 *
b1 s
b111001110000 &
b111001110000 E
b111001110000 O
b111001110000 t
b111001110000 G"
b101 6
b1 /"
b1 8"
b101000 7
15
1K
#150000
05
0K
#155000
b100011 )"
b10010000 o
b10010000 ~
b10010000 ,"
b10010000 n"
b10010000 $"
b10 *"
1|"
b10001100 a
b10001100 ""
b10001100 k"
b10001100 m"
b10001100 h
b10001100 N"
b10001100 ]"
b10001100 i"
b10001100 W"
b100011 ^
b100011 6"
b100011 P"
b100011 v"
b100011 X"
b100 i
b100 &"
b100 M"
b100 V"
b10 j
b10 '"
b10 L"
b10 U"
b1100 $
b1100 H
b1100 U
b1100 Q"
b1100 Y"
b1 '
b1 I
b1 V
b1 R"
b1 ["
b101 1"
b101 ?"
0g
0;"
b1000110010 p
b1000110010 ("
b1000110010 2"
b1000110010 7"
1Z
b10 b
b10 4"
b10 l"
b10 ="
b110 6
b1000000100010010011000100011 T"
b1000 )
b1000 ]
b1000 w"
b1000 y"
b1000 #
b1000 G
b1000 T
b1000 {
b1000 x"
b1000 }
b1000 4
b1000 ;
b1000 l
b1000 D"
b1000 u"
b1000 E"
b1000 \
b1000 r"
b1000 z"
b1000 t"
b101000 7
b111001110000 n
b111001110000 u
b111001110000 \"
b111001110000 c"
b111001110000 v
b1000 q
b1000 |
b1000 -"
b1000 C"
b1000 p"
b1000 ."
b10 /"
b10 8"
15
1K
#160000
05
0K
#165000
b101 *"
0|"
b100 1"
b100 ?"
b1000110101 p
b1000110101 ("
b1000110101 2"
b1000110101 7"
0Z
1d
1<"
b111 6
b10 >
b111011111100 o
b111011111100 ~
b111011111100 ,"
b111011111100 n"
b111011111100 $"
b10010000 )
b10010000 ]
b10010000 w"
b10010000 y"
b1000 -
b1000 r
b1000 S
b1000 I"
b1000 K"
b111001110000 c
b111001110000 #"
b111001110000 d"
b111001110000 f"
b10010000 #
b10010000 G
b10010000 T
b10010000 {
b10010000 x"
b10010000 }
b10010000 4
b10010000 ;
b10010000 l
b10010000 D"
b10010000 u"
b10010000 E"
b10010000 \
b10010000 r"
b10010000 z"
b10010000 t"
b101 /"
b101 8"
b1000 [
b1000 J"
b1000 e"
b1000 {"
b1000 }"
b10010000 q
b10010000 |
b10010000 -"
b10010000 C"
b10010000 p"
b10010000 ."
b101000 7
15
1K
#170000
05
0K
#175000
b1 1"
b1 ?"
b1111 3
b1111 :
b1111 k
b1111 3"
b1111 9"
0/
0:"
b1000 6
b111011111100 )
b111011111100 ]
b111011111100 w"
b111011111100 y"
b111011111100 #
b111011111100 G
b111011111100 T
b111011111100 {
b111011111100 x"
b111011111100 }
b111011111100 4
b111011111100 ;
b111011111100 l
b111011111100 D"
b111011111100 u"
b111011111100 E"
b111011111100 \
b111011111100 r"
b111011111100 z"
b111011111100 t"
b101000 7
b1000100000010010010000100011 C
b111011111100 q
b111011111100 |
b111011111100 -"
b111011111100 C"
b111011111100 p"
b111011111100 ."
b100 /"
b100 8"
15
1K
#176000
b1000100000010010010000100011 +
b1000100000010010010000100011 A
b1000100000010010010000100011 N
b1000100000010010010000100011 F"
b1000100000010010010000100011 O"
#180000
b10 Q
b10 0"
b10 B"
05
0K
#185000
b1100 o
b1100 ~
b1100 ,"
b1100 n"
b1100 $"
b1 *"
b100 a
b100 ""
b100 k"
b100 m"
b1000 c
b1000 #"
b1000 d"
b1000 f"
b10 1"
b10 ?"
1/
1:"
1g
1;"
b1000110001 p
b1000110001 ("
b1000110001 2"
b1000110001 7"
b0 b
b0 4"
b0 l"
b0 ="
0d
0<"
b10 *
b10 s
b1001 6
b1 /"
b1 8"
b0 =
b101000 7
15
1K
#190000
05
0K
#195000
b10010000 o
b10010000 ~
b10010000 ,"
b10010000 n"
b10010000 $"
b10 *"
1|"
b10001000 a
b10001000 ""
b10001000 k"
b10001000 m"
b10001000 h
b10001000 N"
b10001000 ]"
b10001000 i"
b10001000 W"
b1000 $
b1000 H
b1000 U
b1000 Q"
b1000 Y"
b1000 '
b1000 I
b1000 V
b1000 R"
b1000 ["
b101 1"
b101 ?"
0g
0;"
b1000110010 p
b1000110010 ("
b1000110010 2"
b1000110010 7"
1Z
b10 b
b10 4"
b10 l"
b10 ="
b1010 6
b1000100000010010010000100011 T"
b1100 )
b1100 ]
b1100 w"
b1100 y"
b1100 #
b1100 G
b1100 T
b1100 {
b1100 x"
b1100 }
b1100 4
b1100 ;
b1100 l
b1100 D"
b1100 u"
b1100 E"
b1100 \
b1100 r"
b1100 z"
b1100 t"
b101000 7
b0 <
b1100 q
b1100 |
b1100 -"
b1100 C"
b1100 p"
b1100 ."
b10 /"
b10 8"
15
1K
#196000
b0 0
b0 8
b0 L
b0 z
#200000
05
0K
#205000
b101 *"
0|"
b100 1"
b100 ?"
b1000110101 p
b1000110101 ("
b1000110101 2"
b1000110101 7"
0Z
1d
1<"
b1011 6
b11 >
b111011111000 o
b111011111000 ~
b111011111000 ,"
b111011111000 n"
b111011111000 $"
b10010000 )
b10010000 ]
b10010000 w"
b10010000 y"
b1100 -
b1100 r
b1100 S
b1100 I"
b1100 K"
b111001110000 c
b111001110000 #"
b111001110000 d"
b111001110000 f"
b10010000 #
b10010000 G
b10010000 T
b10010000 {
b10010000 x"
b10010000 }
b10010000 4
b10010000 ;
b10010000 l
b10010000 D"
b10010000 u"
b10010000 E"
b10010000 \
b10010000 r"
b10010000 z"
b10010000 t"
b101 /"
b101 8"
b1100 [
b1100 J"
b1100 e"
b1100 {"
b1100 }"
b10010000 q
b10010000 |
b10010000 -"
b10010000 C"
b10010000 p"
b10010000 ."
bx <
b101000 7
15
1K
#206000
bx 0
bx 8
bx L
bx z
#210000
05
0K
#215000
b1 1"
b1 ?"
0/
0:"
b1100 6
b111011111000 )
b111011111000 ]
b111011111000 w"
b111011111000 y"
b111011111000 #
b111011111000 G
b111011111000 T
b111011111000 {
b111011111000 x"
b111011111000 }
b111011111000 4
b111011111000 ;
b111011111000 l
b111011111000 D"
b111011111000 u"
b111011111000 E"
b111011111000 \
b111011111000 r"
b111011111000 z"
b111011111000 t"
b101000 7
b1001000000010000010000010011 C
b111011111000 q
b111011111000 |
b111011111000 -"
b111011111000 C"
b111011111000 p"
b111011111000 ."
b100 /"
b100 8"
15
1K
#216000
b1001000000010000010000010011 +
b1001000000010000010000010011 A
b1001000000010000010000010011 N
b1001000000010000010000010011 F"
b1001000000010000010000010011 O"
#220000
b11 Q
b11 0"
b11 B"
05
0K
#225000
b10000 o
b10000 ~
b10000 ,"
b10000 n"
b10000 $"
b1 *"
b100 a
b100 ""
b100 k"
b100 m"
b1100 c
b1100 #"
b1100 d"
b1100 f"
b10 1"
b10 ?"
1/
1:"
1g
1;"
b1000110001 p
b1000110001 ("
b1000110001 2"
b1000110001 7"
b0 b
b0 4"
b0 l"
b0 ="
0d
0<"
b11 *
b11 s
b1101 6
b1 /"
b1 8"
b0 =
b101000 7
15
1K
#230000
05
0K
#235000
b10011 )"
b10011100 o
b10011100 ~
b10011100 ,"
b10011100 n"
b10011100 $"
b10 *"
1|"
b10010000 a
b10010000 ""
b10010000 k"
b10010000 m"
b10010000 h
b10010000 N"
b10010000 ]"
b10010000 i"
b10010000 W"
b10011 ^
b10011 6"
b10011 P"
b10011 v"
b10011 X"
b0 j
b0 '"
b0 L"
b0 U"
b10000 '
b10000 I
b10000 V
b10000 R"
b10000 ["
b101 1"
b101 ?"
0g
0;"
b100110010 p
b100110010 ("
b100110010 2"
b100110010 7"
1Z
b10 b
b10 4"
b10 l"
b10 ="
b1110 6
b1001000000010000010000010011 T"
b10000 )
b10000 ]
b10000 w"
b10000 y"
b10000 #
b10000 G
b10000 T
b10000 {
b10000 x"
b10000 }
b10000 4
b10000 ;
b10000 l
b10000 D"
b10000 u"
b10000 E"
b10000 \
b10000 r"
b10000 z"
b10000 t"
b101000 7
b0 <
b10000 q
b10000 |
b10000 -"
b10000 C"
b10000 p"
b10000 ."
b10 /"
b10 8"
15
1K
#236000
b0 0
b0 8
b0 L
b0 z
#240000
05
0K
#245000
b101 *"
0|"
b1011 1"
b1011 ?"
b100110101 p
b100110101 ("
b100110101 2"
b100110101 7"
0Z
1d
1<"
b1111 6
b100 >
b111100000000 o
b111100000000 ~
b111100000000 ,"
b111100000000 n"
b111100000000 $"
b10011100 )
b10011100 ]
b10011100 w"
b10011100 y"
b10000 -
b10000 r
b10000 S
b10000 I"
b10000 K"
b111001110000 c
b111001110000 #"
b111001110000 d"
b111001110000 f"
b10011100 #
b10011100 G
b10011100 T
b10011100 {
b10011100 x"
b10011100 }
b10011100 4
b10011100 ;
b10011100 l
b10011100 D"
b10011100 u"
b10011100 E"
b10011100 \
b10011100 r"
b10011100 z"
b10011100 t"
b101 /"
b101 8"
b10000 [
b10000 J"
b10000 e"
b10000 {"
b10000 }"
b10011100 q
b10011100 |
b10011100 -"
b10011100 C"
b10011100 p"
b10011100 ."
bx <
b101000 7
15
1K
#246000
bx 0
bx 8
bx L
bx z
#250000
05
0K
#255000
b1 1"
b1 ?"
1"
1A"
b10000 6
b111100000000 )
b111100000000 ]
b111100000000 w"
b111100000000 y"
b111100000000 #
b111100000000 G
b111100000000 T
b111100000000 {
b111100000000 x"
b111100000000 }
b111100000000 4
b111100000000 ;
b111100000000 l
b111100000000 D"
b111100000000 u"
b111100000000 E"
b111100000000 \
b111100000000 r"
b111100000000 z"
b111100000000 t"
b101000 7
b11111110000001000010011000100011 C
b111100000000 q
b111100000000 |
b111100000000 -"
b111100000000 C"
b111100000000 p"
b111100000000 ."
b1011 /"
b1011 8"
15
1K
#256000
b11111110000001000010011000100011 +
b11111110000001000010011000100011 A
b11111110000001000010011000100011 N
b11111110000001000010011000100011 F"
b11111110000001000010011000100011 O"
#260000
b100 Q
b100 0"
b100 B"
05
0K
#265000
b10100 o
b10100 ~
b10100 ,"
b10100 n"
b10100 $"
b1 *"
b100 a
b100 ""
b100 k"
b100 m"
b10000 c
b10000 #"
b10000 d"
b10000 f"
b10 1"
b10 ?"
1g
1;"
0"
0A"
b100110001 p
b100110001 ("
b100110001 2"
b100110001 7"
b0 b
b0 4"
b0 l"
b0 ="
0d
0<"
b100 *
b100 s
b10001 6
b1 /"
b1 8"
b101000 7
15
1K
#270000
05
0K
#275000
b100011 )"
b11111111111111111111111111111100 o
b11111111111111111111111111111100 ~
b11111111111111111111111111111100 ,"
b11111111111111111111111111111100 n"
b11111111111111111111111111111100 $"
b10 *"
1|"
b11111111111111111111111111101100 a
b11111111111111111111111111101100 ""
b11111111111111111111111111101100 k"
b11111111111111111111111111101100 m"
b11111111111111111111111111101100 h
b11111111111111111111111111101100 N"
b11111111111111111111111111101100 ]"
b11111111111111111111111111101100 i"
b11111111111111111111111111101100 W"
b100011 ^
b100011 6"
b100011 P"
b100011 v"
b100011 X"
b1111111 i
b1111111 &"
b1111111 M"
b1111111 V"
b10 j
b10 '"
b10 L"
b10 U"
b1100 $
b1100 H
b1100 U
b1100 Q"
b1100 Y"
b0 '
b0 I
b0 V
b0 R"
b0 ["
b111100000000 &
b111100000000 E
b111100000000 O
b111100000000 t
b111100000000 G"
b1000 (
b1000 J
b1000 W
b1000 S"
b1000 Z"
b101 1"
b101 ?"
0g
0;"
b1000110010 p
b1000110010 ("
b1000110010 2"
b1000110010 7"
1Z
b10 b
b10 4"
b10 l"
b10 ="
b10010 6
b11111110000001000010011000100011 T"
b10100 )
b10100 ]
b10100 w"
b10100 y"
b10100 #
b10100 G
b10100 T
b10100 {
b10100 x"
b10100 }
b10100 4
b10100 ;
b10100 l
b10100 D"
b10100 u"
b10100 E"
b10100 \
b10100 r"
b10100 z"
b10100 t"
b101000 7
b10100 q
b10100 |
b10100 -"
b10100 C"
b10100 p"
b10100 ."
b10 /"
b10 8"
15
1K
#280000
05
0K
